{
  "events" : [ {
    "eventCountry" : "Avusturalia",
    "eventDate" : [ {
      "dateTitle" : "Practice 1",
      "dateValue" : "23.03.2018",
      "dateHour"  : ""
    }, {
      "dateTitle" : "Practice 2",
      "dateValue" : "23.03.2018",
      "dateHour"  : ""
    }, {
      "dateTitle" : "Practice 3",
      "dateValue" : "24.03.2018",
      "dateHour"  : ""
    }, {
      "dateTitle" : "Qualyfing",
      "dateValue" : "24.03.2018",
      "dateHour"  : ""
    }, {
      "dateTitle" : "Race",
      "dateValue" : "25.03.2018",
      "dateHour"  : ""
    } ],
    "eventLocation" : "Melbourne",
    "eventName" : "Rolex Australian Grand Prix",
    "eventWinner" : "Sebastian Vettel"
  }, {
     "eventCountry" : "Bahrain",
    "eventDate" : [ {
      "dateTitle" : "Practice 1",
      "dateValue" : "06.04.2018",
      "dateHour"  : ""
    }, {
      "dateTitle" : "Practice 2",
      "dateValue" : "06.04.2018",
      "dateHour"  : ""
    }, {
      "dateTitle" : "Practice 3",
      "dateValue" : "07.04.2018",
      "dateHour"  : ""
    }, {
      "dateTitle" : "Qualyfing",
      "dateValue" : "07.04.2018",
      "dateHour"  : ""
    }, {
      "dateTitle" : "Race",
      "dateValue" : "08.04.2018",
      "dateHour"  : ""
    } ],
    "eventLocation" : "Bahrain",
    "eventName" : "Gulf Air Bahrain Grand Prix",
    "eventWinner" : "Sebastian Vettel"
  } ,{
     "eventCountry" : "China",
    "eventDate" : [ {
      "dateTitle" : "Practice 1",
      "dateValue" : "13.04.2018",
      "dateHour"  : ""
    }, {
      "dateTitle" : "Practice 2",
      "dateValue" : "13.04.2018",
      "dateHour"  : ""
    }, {
      "dateTitle" : "Practice 3",
      "dateValue" : "14.04.2018",
      "dateHour"  : ""
    }, {
      "dateTitle" : "Qualyfing",
      "dateValue" : "14.04.2018",
      "dateHour"  : ""
    }, {
      "dateTitle" : "Race",
      "dateValue" : "15.04.2018",
      "dateHour"  : ""
    } ],
    "eventLocation" : "Shangai International Circuit",
    "eventName" : "Heineken Chinese Grand Prix",
    "eventWinner" : "Daniel Ricciardo"
  },
  {
     "eventCountry" : "Azerbaijan",
    "eventDate" : [ {
      "dateTitle" : "Practice 1",
      "dateValue" : "27.04.2018",
      "dateHour"  : ""
    }, {
      "dateTitle" : "Practice 2",
      "dateValue" : "27.04.2018",
      "dateHour"  : ""
    }, {
      "dateTitle" : "Practice 3",
      "dateValue" : "28.04.2018",
      "dateHour"  : ""
    }, {
      "dateTitle" : "Qualyfing",
      "dateValue" : "28.04.2018",
      "dateHour"  : ""
    }, {
      "dateTitle" : "Race",
      "dateValue" : "29.04.2018",
      "dateHour"  : ""
    } ],
    "eventLocation" : "Baku City Circuit",
    "eventName" : "AzerBaijan Grand Prix",
    "eventWinner" : "Lewis Hamilton"
  },
  {
     "eventCountry" : "Spain",
    "eventDate" : [ {
      "dateTitle" : "Practice 1",
      "dateValue" : "11.05.2018",
      "dateHour"  : ""
    }, {
      "dateTitle" : "Practice 2",
      "dateValue" : "11.05.2018",
      "dateHour"  : ""
    }, {
      "dateTitle" : "Practice 3",
      "dateValue" : "12.05.2018",
      "dateHour"  : ""
    }, {
      "dateTitle" : "Qualyfing",
      "dateValue" : "12.05.2018",
      "dateHour"  : ""
    }, {
      "dateTitle" : "Race",
      "dateValue" : "13.05.2018",
      "dateHour"  : ""
    } ],
    "eventLocation" : "Circuit de Barcelona-Catalunya",
    "eventName" : "Gran Premio De Espana Emirates",
    "eventWinner" : "Lewis Hamilton"
  },
  {
     "eventCountry" : "Monaco",
    "eventDate" : [ {
      "dateTitle" : "Practice 1",
      "dateValue" : "24.05.2018",
      "dateHour"  : ""
    }, {
      "dateTitle" : "Practice 2",
      "dateValue" : "24.05.2018",
      "dateHour"  : ""
    }, {
      "dateTitle" : "Practice 3",
      "dateValue" : "26.05.2018",
      "dateHour"  : ""
    }, {
      "dateTitle" : "Qualyfing",
      "dateValue" : "26.05.2018",
      "dateHour"  : ""
    }, {
      "dateTitle" : "Race",
      "dateValue" : "27.05.2018",
      "dateHour"  : ""
    } ],
    "eventLocation" : "Circuit de Monaco",
    "eventName" : "Grand Prix De Monaco",
    "eventWinner" : "Daniel Ricciardo"
  },
  {
     "eventCountry" : "Canada",
    "eventDate" : [ {
      "dateTitle" : "Practice 1",
      "dateValue" : "08.06.2018",
      "dateHour"  : ""
    }, {
      "dateTitle" : "Practice 2",
      "dateValue" : "08.06.2018",
      "dateHour"  : ""
    }, {
      "dateTitle" : "Practice 3",
      "dateValue" : "09.06.2018",
      "dateHour"  : ""
    }, {
      "dateTitle" : "Qualyfing",
      "dateValue" : "09.06.2018",
      "dateHour"  : ""
    }, {
      "dateTitle" : "Race",
      "dateValue" : "10.06.2018",
      "dateHour"  : ""
    } ],
    "eventLocation" : "Circuit Gilles-Villeneuve",
    "eventName" : "Grand Prix Heineken Du Canada",
    "eventWinner" : "Sebastian Vettel"
  },
  {
     "eventCountry" : "France",
    "eventDate" : [ {
      "dateTitle" : "Practice 1",
      "dateValue" : "22.06.2018",
      "dateHour"  : ""
    }, {
      "dateTitle" : "Practice 2",
      "dateValue" : "22.06.2018",
      "dateHour"  : ""
    }, {
      "dateTitle" : "Practice 3",
      "dateValue" : "23.06.2018",
      "dateHour"  : ""
    }, {
      "dateTitle" : "Qualyfing",
      "dateValue" : "23.06.2018",
      "dateHour"  : ""
    }, {
      "dateTitle" : "Race",
      "dateValue" : "24.06.2018",
      "dateHour"  : ""
    } ],
    "eventLocation" : "Circuit Pual Ricard",
    "eventName" : "Pirelli Grand Prix De France",
    "eventWinner" : "Lewis Hamilton"
  },
  {
     "eventCountry" : "Austria",
    "eventDate" : [ {
      "dateTitle" : "Practice 1",
      "dateValue" : "29.06.2018",
      "dateHour"  : ""
    }, {
      "dateTitle" : "Practice 2",
      "dateValue" : "29.06.2018",
      "dateHour"  : ""
    }, {
      "dateTitle" : "Practice 3",
      "dateValue" : "30.06.2018",
      "dateHour"  : ""
    }, {
      "dateTitle" : "Qualyfing",
      "dateValue" : "30.06.2018",
      "dateHour"  : ""
    }, {
      "dateTitle" : "Race",
      "dateValue" : "01.07.2018",
      "dateHour"  : ""
    } ],
    "eventLocation" : "Red Bull Ring",
    "eventName" : "Eyetime Grosser Preis Von Österreich",
    "eventWinner" : "Max Verstappen"
  },
  {
     "eventCountry" : "Great Britain",
    "eventDate" : [ {
      "dateTitle" : "Practice 1",
      "dateValue" : "06.07.2018",
      "dateHour"  : ""
    }, {
      "dateTitle" : "Practice 2",
      "dateValue" : "06.07.2018",
      "dateHour"  : ""
    }, {
      "dateTitle" : "Practice 3",
      "dateValue" : "07.07.2018",
      "dateHour"  : ""
    }, {
      "dateTitle" : "Qualyfing",
      "dateValue" : "07.07.2018",
      "dateHour"  : ""
    }, {
      "dateTitle" : "Race",
      "dateValue" : "08.07.2018",
      "dateHour"  : ""
    } ],
    "eventLocation" : "Silverstone Circuit",
    "eventName" : "Rolex British Grand Prix",
    "eventWinner" : "Sebastian Vettel"
  },
  {
     "eventCountry" : "Germany",
    "eventDate" : [ {
      "dateTitle" : "Practice 1",
      "dateValue" : "20.07.2018",
      "dateHour"  : ""
    }, {
      "dateTitle" : "Practice 2",
      "dateValue" : "20.07.2018",
      "dateHour"  : ""
    }, {
      "dateTitle" : "Practice 3",
      "dateValue" : "21.07.2018",
      "dateHour"  : ""
    }, {
      "dateTitle" : "Qualyfing",
      "dateValue" : "21.07.2018",
      "dateHour"  : ""
    }, {
      "dateTitle" : "Race",
      "dateValue" : "22.07.2018",
      "dateHour"  : ""
    } ],
    "eventLocation" : "Hockenheimring",
    "eventName" : "Emirates Grosser Preis Von Deutschland",
    "eventWinner" : "Lewis Hamilton"
  },
  {
     "eventCountry" : "Hungary",
    "eventDate" : [ {
      "dateTitle" : "Practice 1",
      "dateValue" : "27.07.2018",
      "dateHour"  : ""
    }, {
      "dateTitle" : "Practice 2",
      "dateValue" : "27.07.2018",
      "dateHour"  : ""
    }, {
      "dateTitle" : "Practice 3",
      "dateValue" : "28.07.2018",
      "dateHour"  : ""
    }, {
      "dateTitle" : "Qualyfing",
      "dateValue" : "28.07.2018",
      "dateHour"  : ""
    }, {
      "dateTitle" : "Race",
      "dateValue" : "29.07.2018",
      "dateHour"  : ""
    } ],
    "eventLocation" : "Hungaroring",
    "eventName" : "Rolex Magyar Nagydij",
    "eventWinner" : "Lewis Hamilton"
  },
  {
     "eventCountry" : "Belgium",
    "eventDate" : [ {
      "dateTitle" : "Practice 1",
      "dateValue" : "24.08.2018",
      "dateHour"  : ""
    }, {
      "dateTitle" : "Practice 2",
      "dateValue" : "24.08.2018",
      "dateHour"  : ""
    }, {
      "dateTitle" : "Practice 3",
      "dateValue" : "25.08.2018",
      "dateHour"  : ""
    }, {
      "dateTitle" : "Qualyfing",
      "dateValue" : "25.08.2018",
      "dateHour"  : ""
    }, {
      "dateTitle" : "Race",
      "dateValue" : "26.08.2018",
      "dateHour"  : ""
    } ],
    "eventLocation" : "Circuit de Spa-Francorchamps",
    "eventName" : "Johnie Walker Belgian Grand Prix",
    "eventWinner" : "Sebastian Vettel"
  },
  {
     "eventCountry" : "Italy",
    "eventDate" : [ {
      "dateTitle" : "Practice 1",
      "dateValue" : "31.08.2018",
      "dateHour"  : ""
    }, {
      "dateTitle" : "Practice 2",
      "dateValue" : "31.08.2018",
      "dateHour"  : ""
    }, {
      "dateTitle" : "Practice 3",
      "dateValue" : "01.09.2018",
      "dateHour"  : ""
    }, {
      "dateTitle" : "Qualyfing",
      "dateValue" : "01.09.2018",
      "dateHour"  : ""
    }, {
      "dateTitle" : "Race",
      "dateValue" : "02.09.2018",
      "dateHour"  : ""
    } ],
    "eventLocation" : "Autodromo Nazionale Monza",
    "eventName" : "Gran Premio Heineken D'italia",
    "eventWinner" : "Lewis Hamilton"
  },
  {
     "eventCountry" : "Singapore",
    "eventDate" : [ {
      "dateTitle" : "Practice 1",
      "dateValue" : "14.09.2018",
      "dateHour"  : ""
    }, {
      "dateTitle" : "Practice 2",
      "dateValue" : "14.09.2018",
      "dateHour"  : ""
    }, {
      "dateTitle" : "Practice 3",
      "dateValue" : "15.09.2018",
      "dateHour"  : ""
    }, {
      "dateTitle" : "Qualyfing",
      "dateValue" : "15.09.2018",
      "dateHour"  : ""
    }, {
      "dateTitle" : "Race",
      "dateValue" : "16.09.2018",
      "dateHour"  : ""
    } ],
    "eventLocation" : "Marina Bay Street Circuit",
    "eventName" : "Singapore Airlines Singapore Grand Prix",
    "eventWinner" : ""
  },
  {
     "eventCountry" : "Russia",
    "eventDate" : [ {
      "dateTitle" : "Practice 1",
      "dateValue" : "28.09.2018",
      "dateHour"  : ""
    }, {
      "dateTitle" : "Practice 2",
      "dateValue" : "28.09.2018",
      "dateHour"  : ""
    }, {
      "dateTitle" : "Practice 3",
      "dateValue" : "29.09.2018",
      "dateHour"  : ""
    }, {
      "dateTitle" : "Qualyfing",
      "dateValue" : "29.09.2018",
      "dateHour"  : ""
    }, {
      "dateTitle" : "Race",
      "dateValue" : "30.09.2018",
      "dateHour"  : ""
    } ],
    "eventLocation" : "Sochi Autodrom",
    "eventName" : "Vtb Russian Grand Prix",
    "eventWinner" : ""
  },
  {
     "eventCountry" : "Japan",
    "eventDate" : [ {
      "dateTitle" : "Practice 1",
      "dateValue" : "05.10.2018",
      "dateHour"  : ""
    }, {
      "dateTitle" : "Practice 2",
      "dateValue" : "05.10.2018",
      "dateHour"  : ""
    }, {
      "dateTitle" : "Practice 3",
      "dateValue" : "06.10.2018",
      "dateHour"  : ""
    }, {
      "dateTitle" : "Qualyfing",
      "dateValue" : "06.10.2018",
      "dateHour"  : ""
    }, {
      "dateTitle" : "Race",
      "dateValue" : "07.10.2018",
      "dateHour"  : ""
    } ],
    "eventLocation" : "Honda Japanese",
    "eventName" : "Suzuka International Racing Course",
    "eventWinner" : ""
  },
  {
     "eventCountry" : "United States",
    "eventDate" : [ {
      "dateTitle" : "Practice 1",
      "dateValue" : "19.10.2018",
      "dateHour"  : ""
    }, {
      "dateTitle" : "Practice 2",
      "dateValue" : "19.10.2018",
      "dateHour"  : ""
    }, {
      "dateTitle" : "Practice 3",
      "dateValue" : "20.10.2018",
      "dateHour"  : ""
    }, {
      "dateTitle" : "Qualyfing",
      "dateValue" : "20.10.2018",
      "dateHour"  : ""
    }, {
      "dateTitle" : "Race",
      "dateValue" : "21.10.2018",
      "dateHour"  : ""
    } ],
    "eventLocation" : "Circuit of The Americas",
    "eventName" : "Pirelli 2018 United States Grand Prix",
    "eventWinner" : ""
  },
  {
     "eventCountry" : "Mexico",
    "eventDate" : [ {
      "dateTitle" : "Practice 1",
      "dateValue" : "26.10.2018",
      "dateHour"  : ""
    }, {
      "dateTitle" : "Practice 2",
      "dateValue" : "26.10.2018",
      "dateHour"  : ""
    }, {
      "dateTitle" : "Practice 3",
      "dateValue" : "27.10.2018",
      "dateHour"  : ""
    }, {
      "dateTitle" : "Qualyfing",
      "dateValue" : "27.10.2018",
      "dateHour"  : ""
    }, {
      "dateTitle" : "Race",
      "dateValue" : "28.10.2018",
      "dateHour"  : ""
    } ],
    "eventLocation" : "Autodromo Hermanos Rodriguez",
    "eventName" : "Gran Premio De Mexico 2018",
    "eventWinner" : ""
  },
  {
     "eventCountry" : "Brazil",
    "eventDate" : [ {
      "dateTitle" : "Practice 1",
      "dateValue" : "09.11.2018",
      "dateHour"  : ""
    }, {
      "dateTitle" : "Practice 2",
      "dateValue" : "09.11.2018",
      "dateHour"  : ""
    }, {
      "dateTitle" : "Practice 3",
      "dateValue" : "10.11.2018",
      "dateHour"  : ""
    }, {
      "dateTitle" : "Qualyfing",
      "dateValue" : "10.11.2018",
      "dateHour"  : ""
    }, {
      "dateTitle" : "Race",
      "dateValue" : "11.11.2018",
      "dateHour"  : ""
    } ],
    "eventLocation" : "Autodromo Jose Carios Pace",
    "eventName" : "Grande Premio Heineken Do Brasil 2018",
    "eventWinner" : ""
  },
  {
     "eventCountry" : "United Arab Emirates",
    "eventDate" : [ {
      "dateTitle" : "Practice 1",
      "dateValue" : "23.11.2018",
      "dateHour"  : ""
    }, {
      "dateTitle" : "Practice 2",
      "dateValue" : "23.11.2018",
      "dateHour"  : ""
    }, {
      "dateTitle" : "Practice 3",
      "dateValue" : "24.11.2018",
      "dateHour"  : ""
    }, {
      "dateTitle" : "Qualyfing",
      "dateValue" : "24.11.2018",
      "dateHour"  : ""
    }, {
      "dateTitle" : "Race",
      "dateValue" : "25.11.2018",
      "dateHour"  : ""
    } ],
    "eventLocation" : "Yas Marina Circuit",
    "eventName" : "Eithad Airways Abu Dhabi Grand Prix",
    "eventWinner" : ""
  }
  ],
  "eventCurrentIndex" : 15,
  "news" : [
    { 
      "newsTitle" : "Thursday's Hot Topic: Force India in focus after Singapore fallout",
      "newsContent" : "As it has been for much of the past few months, Force India were the point of much paddock focus on Thursday in Sochi, as the fallout from the teams eventful Singapore Grand Prix, coupled with continuing rumblings over the outfits administration proceedings, set the tone for debate…",
      "newsDetail" : "As it has been for much of the past few months, Force India were the point of much paddock focus on Thursday in Sochi, as the fallout from the teams eventful Singapore Grand Prix, coupled with continuing rumblings over the outfits administration proceedings, set the tone for debate…Since their rebirth and subsequent constructors’ championship points reset at the Belgian Grand Prix, the team had charged up the standings to sit seventh by the start of the last racing weekend, with sixth-placed McLaren their next target.Yet despite qualifying both cars in the top ten at the Marina Bay Street Circuit, Force India lost ground to their rivals after their drivers made contact, with Esteban Ocon forced into retirement on Lap 1.Of course, it’s not the first time the Force India duo have come to blows, but while the loss of points their previous conflicts inflicted on the team were costly, never before had they been deemed quite so unforgivable.",
      "newsImageURL" : "https://www.formula1.com/content/dam/fom-website/sutton/2018/Singapore/Sunday/dcd1816se994.jpg.transform/9col-retina/image.jpg",
      "imageSizeHeight": 300
    },
    { 
      "newsTitle" : "news 1 title",
      "newsContent" : "news 1 content",
      "newsDetail" : "news 1 detail",
      "newsImageURL" : "http://img-emlakjet.mncdn.com/mnresize/400/300/firmalar/30/firma412030/xl/2017/07/20/30858bc975c10f7cf3e32b135b3bbcd6.jpg",
      "imageSizeHeight": 150
    },
    { 
      "newsTitle" : "news 1 title",
      "newsContent" : "news 1 content",
      "newsDetail" : "news 1 detail",
      "newsImageURL" : "http://img-emlakjet.mncdn.com/mnresize/400/300/firmalar/30/firma412030/xl/2017/07/20/30858bc975c10f7cf3e32b135b3bbcd6.jpg",
      "imageSizeHeight": 70
    },
    { 
      "newsTitle" : "news 1 title",
      "newsContent" : "news 1 content",
      "newsDetail" : "news 1 detail",
      "newsImageURL" : "http://img-emlakjet.mncdn.com/mnresize/400/300/firmalar/30/firma412030/xl/2017/07/20/30858bc975c10f7cf3e32b135b3bbcd6.jpg",
      "imageSizeHeight": 80
    },
    { 
      "newsTitle" : "news 1 title",
      "newsContent" : "news 1 content",
      "newsDetail" : "news 1 detail",
      "newsImageURL" : "http://img-emlakjet.mncdn.com/mnresize/400/300/firmalar/30/firma412030/xl/2017/07/20/30858bc975c10f7cf3e32b135b3bbcd6.jpg",
      "imageSizeHeight": 120
    }
  ]
}